[
  
  {
      "_id": "c-10",
      "_parentId": "b-10",
      "_type": "component",
      "_component": "co-jump",
      "_classes": "color-test",
      "_preLinkBody": "Next, let’s take a look at some ",
      "_linkBody": "Creative Considerations for Video in Mobile Feed",
      "_postLinkBody": ".",
      "_link": "#/id/co-100",
      "_graphic": "adapt/css/assets/icon_nextPage.png",
      "_pageLevelProgress": {
          "_isEnabled": false
      }
  }
]
